EESchema Schematic File Version 2
LIBS:power
LIBS:device
LIBS:switches
LIBS:relays
LIBS:motors
LIBS:transistors
LIBS:conn
LIBS:linear
LIBS:regul
LIBS:74xx
LIBS:cmos4000
LIBS:adc-dac
LIBS:memory
LIBS:xilinx
LIBS:microcontrollers
LIBS:dsp
LIBS:microchip
LIBS:analog_switches
LIBS:motorola
LIBS:texas
LIBS:intel
LIBS:audio
LIBS:interface
LIBS:digital-audio
LIBS:philips
LIBS:display
LIBS:cypress
LIBS:siliconi
LIBS:opto
LIBS:atmel
LIBS:contrib
LIBS:valves
LIBS:arduinonano
LIBS:QuickArduinoAutomationBoard-cache
EELAYER 25 0
EELAYER END
$Descr A4 11693 8268
encoding utf-8
Sheet 1 1
Title ""
Date ""
Rev ""
Comp ""
Comment1 ""
Comment2 ""
Comment3 ""
Comment4 ""
$EndDescr
$Comp
L CP C3
U 1 1 5A3EC531
P 10400 5000
F 0 "C3" H 10425 5100 50  0000 L CNN
F 1 "1u" H 10425 4900 50  0000 L CNN
F 2 "Capacitors_THT:CP_Radial_D5.0mm_P2.50mm" H 10438 4850 50  0001 C CNN
F 3 "" H 10400 5000 50  0001 C CNN
	1    10400 5000
	1    0    0    -1  
$EndComp
Text GLabel 6850 4000 2    60   Input ~ 0
Input4
Text GLabel 6850 3800 2    60   Input ~ 0
Input3
Text GLabel 6850 3600 2    60   Input ~ 0
Input2
Text GLabel 6850 3400 2    60   Input ~ 0
Input1
$Comp
L +5V #PWR01
U 1 1 5A3EC669
P 6850 3200
F 0 "#PWR01" H 6850 3050 50  0001 C CNN
F 1 "+5V" H 6850 3340 50  0000 C CNN
F 2 "" H 6850 3200 50  0001 C CNN
F 3 "" H 6850 3200 50  0001 C CNN
	1    6850 3200
	0    1    1    0   
$EndComp
$Comp
L +5V #PWR02
U 1 1 5A3EC75F
P 10400 4800
F 0 "#PWR02" H 10400 4650 50  0001 C CNN
F 1 "+5V" H 10400 4940 50  0000 C CNN
F 2 "" H 10400 4800 50  0001 C CNN
F 3 "" H 10400 4800 50  0001 C CNN
	1    10400 4800
	1    0    0    -1  
$EndComp
$Comp
L R R11
U 1 1 5A3EC78D
P 10000 5000
F 0 "R11" V 10080 5000 50  0000 C CNN
F 1 "1k" V 10000 5000 50  0000 C CNN
F 2 "Resistors_THT:R_Axial_DIN0309_L9.0mm_D3.2mm_P12.70mm_Horizontal" V 9930 5000 50  0001 C CNN
F 3 "" H 10000 5000 50  0001 C CNN
	1    10000 5000
	1    0    0    -1  
$EndComp
$Comp
L +5V #PWR03
U 1 1 5A3EC7B3
P 10000 4800
F 0 "#PWR03" H 10000 4650 50  0001 C CNN
F 1 "+5V" H 10000 4940 50  0000 C CNN
F 2 "" H 10000 4800 50  0001 C CNN
F 3 "" H 10000 4800 50  0001 C CNN
	1    10000 4800
	1    0    0    -1  
$EndComp
$Comp
L R R15
U 1 1 5A3EC7DE
P 10200 5200
F 0 "R15" V 10280 5200 50  0000 C CNN
F 1 "10k" V 10200 5200 50  0000 C CNN
F 2 "Resistors_THT:R_Axial_DIN0309_L9.0mm_D3.2mm_P12.70mm_Horizontal" V 10130 5200 50  0001 C CNN
F 3 "" H 10200 5200 50  0001 C CNN
	1    10200 5200
	0    1    1    0   
$EndComp
$Comp
L Conn_01x02 J8
U 1 1 5A3EC882
P 9700 5200
F 0 "J8" H 9700 5300 50  0000 C CNN
F 1 "Conn_01x02" H 9700 5000 50  0000 C CNN
F 2 "Connectors_Terminal_Blocks:TerminalBlock_bornier-2_P5.08mm" H 9700 5200 50  0001 C CNN
F 3 "" H 9700 5200 50  0001 C CNN
	1    9700 5200
	-1   0    0    -1  
$EndComp
$Comp
L GND #PWR04
U 1 1 5A3EC909
P 10000 5350
F 0 "#PWR04" H 10000 5100 50  0001 C CNN
F 1 "GND" H 10000 5200 50  0000 C CNN
F 2 "" H 10000 5350 50  0001 C CNN
F 3 "" H 10000 5350 50  0001 C CNN
	1    10000 5350
	1    0    0    -1  
$EndComp
Text GLabel 10550 5200 2    60   Input ~ 0
Input2
$Comp
L CP C4
U 1 1 5A3ED00B
P 10400 5950
F 0 "C4" H 10425 6050 50  0000 L CNN
F 1 "1u" H 10425 5850 50  0000 L CNN
F 2 "Capacitors_THT:CP_Radial_D5.0mm_P2.50mm" H 10438 5800 50  0001 C CNN
F 3 "" H 10400 5950 50  0001 C CNN
	1    10400 5950
	1    0    0    -1  
$EndComp
$Comp
L +5V #PWR05
U 1 1 5A3ED011
P 10400 5750
F 0 "#PWR05" H 10400 5600 50  0001 C CNN
F 1 "+5V" H 10400 5890 50  0000 C CNN
F 2 "" H 10400 5750 50  0001 C CNN
F 3 "" H 10400 5750 50  0001 C CNN
	1    10400 5750
	1    0    0    -1  
$EndComp
$Comp
L R R12
U 1 1 5A3ED018
P 10000 5950
F 0 "R12" V 10080 5950 50  0000 C CNN
F 1 "1k" V 10000 5950 50  0000 C CNN
F 2 "Resistors_THT:R_Axial_DIN0309_L9.0mm_D3.2mm_P12.70mm_Horizontal" V 9930 5950 50  0001 C CNN
F 3 "" H 10000 5950 50  0001 C CNN
	1    10000 5950
	1    0    0    -1  
$EndComp
$Comp
L +5V #PWR06
U 1 1 5A3ED01E
P 10000 5750
F 0 "#PWR06" H 10000 5600 50  0001 C CNN
F 1 "+5V" H 10000 5890 50  0000 C CNN
F 2 "" H 10000 5750 50  0001 C CNN
F 3 "" H 10000 5750 50  0001 C CNN
	1    10000 5750
	1    0    0    -1  
$EndComp
$Comp
L R R16
U 1 1 5A3ED025
P 10200 6150
F 0 "R16" V 10280 6150 50  0000 C CNN
F 1 "10k" V 10200 6150 50  0000 C CNN
F 2 "Resistors_THT:R_Axial_DIN0309_L9.0mm_D3.2mm_P12.70mm_Horizontal" V 10130 6150 50  0001 C CNN
F 3 "" H 10200 6150 50  0001 C CNN
	1    10200 6150
	0    1    1    0   
$EndComp
$Comp
L Conn_01x02 J9
U 1 1 5A3ED031
P 9700 6150
F 0 "J9" H 9700 6250 50  0000 C CNN
F 1 "Conn_01x02" H 9700 5950 50  0000 C CNN
F 2 "Connectors_Terminal_Blocks:TerminalBlock_bornier-2_P5.08mm" H 9700 6150 50  0001 C CNN
F 3 "" H 9700 6150 50  0001 C CNN
	1    9700 6150
	-1   0    0    -1  
$EndComp
$Comp
L GND #PWR07
U 1 1 5A3ED038
P 10000 6300
F 0 "#PWR07" H 10000 6050 50  0001 C CNN
F 1 "GND" H 10000 6150 50  0000 C CNN
F 2 "" H 10000 6300 50  0001 C CNN
F 3 "" H 10000 6300 50  0001 C CNN
	1    10000 6300
	1    0    0    -1  
$EndComp
Text GLabel 10550 6150 2    60   Input ~ 0
Input1
$Comp
L CP C2
U 1 1 5A3ED0E2
P 10400 4050
F 0 "C2" H 10425 4150 50  0000 L CNN
F 1 "1u" H 10425 3950 50  0000 L CNN
F 2 "Capacitors_THT:CP_Radial_D5.0mm_P2.50mm" H 10438 3900 50  0001 C CNN
F 3 "" H 10400 4050 50  0001 C CNN
	1    10400 4050
	1    0    0    -1  
$EndComp
$Comp
L +5V #PWR08
U 1 1 5A3ED0E8
P 10400 3850
F 0 "#PWR08" H 10400 3700 50  0001 C CNN
F 1 "+5V" H 10400 3990 50  0000 C CNN
F 2 "" H 10400 3850 50  0001 C CNN
F 3 "" H 10400 3850 50  0001 C CNN
	1    10400 3850
	1    0    0    -1  
$EndComp
$Comp
L R R10
U 1 1 5A3ED0EF
P 10000 4050
F 0 "R10" V 10080 4050 50  0000 C CNN
F 1 "1k" V 10000 4050 50  0000 C CNN
F 2 "Resistors_THT:R_Axial_DIN0309_L9.0mm_D3.2mm_P12.70mm_Horizontal" V 9930 4050 50  0001 C CNN
F 3 "" H 10000 4050 50  0001 C CNN
	1    10000 4050
	1    0    0    -1  
$EndComp
$Comp
L +5V #PWR09
U 1 1 5A3ED0F5
P 10000 3850
F 0 "#PWR09" H 10000 3700 50  0001 C CNN
F 1 "+5V" H 10000 3990 50  0000 C CNN
F 2 "" H 10000 3850 50  0001 C CNN
F 3 "" H 10000 3850 50  0001 C CNN
	1    10000 3850
	1    0    0    -1  
$EndComp
$Comp
L R R14
U 1 1 5A3ED0FC
P 10200 4250
F 0 "R14" V 10280 4250 50  0000 C CNN
F 1 "10k" V 10200 4250 50  0000 C CNN
F 2 "Resistors_THT:R_Axial_DIN0309_L9.0mm_D3.2mm_P12.70mm_Horizontal" V 10130 4250 50  0001 C CNN
F 3 "" H 10200 4250 50  0001 C CNN
	1    10200 4250
	0    1    1    0   
$EndComp
$Comp
L Conn_01x02 J7
U 1 1 5A3ED108
P 9700 4250
F 0 "J7" H 9700 4350 50  0000 C CNN
F 1 "Conn_01x02" H 9700 4050 50  0000 C CNN
F 2 "Connectors_Terminal_Blocks:TerminalBlock_bornier-2_P5.08mm" H 9700 4250 50  0001 C CNN
F 3 "" H 9700 4250 50  0001 C CNN
	1    9700 4250
	-1   0    0    -1  
$EndComp
$Comp
L GND #PWR010
U 1 1 5A3ED10F
P 10000 4400
F 0 "#PWR010" H 10000 4150 50  0001 C CNN
F 1 "GND" H 10000 4250 50  0000 C CNN
F 2 "" H 10000 4400 50  0001 C CNN
F 3 "" H 10000 4400 50  0001 C CNN
	1    10000 4400
	1    0    0    -1  
$EndComp
Text GLabel 10550 4250 2    60   Input ~ 0
Input3
$Comp
L CP C1
U 1 1 5A3ED238
P 10400 3100
F 0 "C1" H 10425 3200 50  0000 L CNN
F 1 "1u" H 10425 3000 50  0000 L CNN
F 2 "Capacitors_THT:CP_Radial_D5.0mm_P2.50mm" H 10438 2950 50  0001 C CNN
F 3 "" H 10400 3100 50  0001 C CNN
	1    10400 3100
	1    0    0    -1  
$EndComp
$Comp
L +5V #PWR011
U 1 1 5A3ED23E
P 10400 2900
F 0 "#PWR011" H 10400 2750 50  0001 C CNN
F 1 "+5V" H 10400 3040 50  0000 C CNN
F 2 "" H 10400 2900 50  0001 C CNN
F 3 "" H 10400 2900 50  0001 C CNN
	1    10400 2900
	1    0    0    -1  
$EndComp
$Comp
L R R9
U 1 1 5A3ED245
P 10000 3100
F 0 "R9" V 10080 3100 50  0000 C CNN
F 1 "1k" V 10000 3100 50  0000 C CNN
F 2 "Resistors_THT:R_Axial_DIN0309_L9.0mm_D3.2mm_P12.70mm_Horizontal" V 9930 3100 50  0001 C CNN
F 3 "" H 10000 3100 50  0001 C CNN
	1    10000 3100
	1    0    0    -1  
$EndComp
$Comp
L +5V #PWR012
U 1 1 5A3ED24B
P 10000 2900
F 0 "#PWR012" H 10000 2750 50  0001 C CNN
F 1 "+5V" H 10000 3040 50  0000 C CNN
F 2 "" H 10000 2900 50  0001 C CNN
F 3 "" H 10000 2900 50  0001 C CNN
	1    10000 2900
	1    0    0    -1  
$EndComp
$Comp
L R R13
U 1 1 5A3ED252
P 10200 3300
F 0 "R13" V 10280 3300 50  0000 C CNN
F 1 "10k" V 10200 3300 50  0000 C CNN
F 2 "Resistors_THT:R_Axial_DIN0309_L9.0mm_D3.2mm_P12.70mm_Horizontal" V 10130 3300 50  0001 C CNN
F 3 "" H 10200 3300 50  0001 C CNN
	1    10200 3300
	0    1    1    0   
$EndComp
$Comp
L Conn_01x02 J6
U 1 1 5A3ED25E
P 9700 3300
F 0 "J6" H 9700 3400 50  0000 C CNN
F 1 "Conn_01x02" H 9700 3100 50  0000 C CNN
F 2 "Connectors_Terminal_Blocks:TerminalBlock_bornier-2_P5.08mm" H 9700 3300 50  0001 C CNN
F 3 "" H 9700 3300 50  0001 C CNN
	1    9700 3300
	-1   0    0    -1  
$EndComp
$Comp
L GND #PWR013
U 1 1 5A3ED265
P 10000 3450
F 0 "#PWR013" H 10000 3200 50  0001 C CNN
F 1 "GND" H 10000 3300 50  0000 C CNN
F 2 "" H 10000 3450 50  0001 C CNN
F 3 "" H 10000 3450 50  0001 C CNN
	1    10000 3450
	1    0    0    -1  
$EndComp
Text GLabel 10550 3300 2    60   Input ~ 0
Input4
NoConn ~ 6750 4100
NoConn ~ 6750 3900
NoConn ~ 6750 3700
NoConn ~ 6750 3500
NoConn ~ 6750 3300
$Comp
L Fuse F1
U 1 1 5A3ED795
P 6500 1300
F 0 "F1" V 6580 1300 50  0000 C CNN
F 1 "Fuse" V 6425 1300 50  0000 C CNN
F 2 "Fuse_Holders_and_Fuses:Fuseholder5x20_horiz_open_universal_Type-III" V 6430 1300 50  0001 C CNN
F 3 "" H 6500 1300 50  0001 C CNN
	1    6500 1300
	0    1    1    0   
$EndComp
$Comp
L Conn_01x02 J5
U 1 1 5A3ED8D6
P 5800 1300
F 0 "J5" H 5800 1400 50  0000 C CNN
F 1 "+12V DC IN" H 5800 1100 50  0000 C CNN
F 2 "Connectors_Terminal_Blocks:TerminalBlock_bornier-2_P5.08mm" H 5800 1300 50  0001 C CNN
F 3 "" H 5800 1300 50  0001 C CNN
	1    5800 1300
	-1   0    0    -1  
$EndComp
$Comp
L GND #PWR014
U 1 1 5A3EDDB0
P 6050 1450
F 0 "#PWR014" H 6050 1200 50  0001 C CNN
F 1 "GND" H 6050 1300 50  0000 C CNN
F 2 "" H 6050 1450 50  0001 C CNN
F 3 "" H 6050 1450 50  0001 C CNN
	1    6050 1450
	1    0    0    -1  
$EndComp
$Comp
L Fuse F2
U 1 1 5A3EE078
P 6500 1550
F 0 "F2" V 6580 1550 50  0000 C CNN
F 1 "100mA" V 6425 1550 50  0000 C CNN
F 2 "Fuse_Holders_and_Fuses:Fuseholder5x20_horiz_open_universal_Type-III" V 6430 1550 50  0001 C CNN
F 3 "" H 6500 1550 50  0001 C CNN
	1    6500 1550
	0    1    1    0   
$EndComp
$Comp
L +12V #PWR015
U 1 1 5A3EE23A
P 6750 1550
F 0 "#PWR015" H 6750 1400 50  0001 C CNN
F 1 "+12V" H 6750 1690 50  0000 C CNN
F 2 "" H 6750 1550 50  0001 C CNN
F 3 "" H 6750 1550 50  0001 C CNN
	1    6750 1550
	0    1    1    0   
$EndComp
$Comp
L +12V #PWR016
U 1 1 5A3EE425
P 7200 2900
F 0 "#PWR016" H 7200 2750 50  0001 C CNN
F 1 "+12V" H 7200 3040 50  0000 C CNN
F 2 "" H 7200 2900 50  0001 C CNN
F 3 "" H 7200 2900 50  0001 C CNN
	1    7200 2900
	1    0    0    -1  
$EndComp
$Comp
L GND #PWR017
U 1 1 5A3EE556
P 7200 3000
F 0 "#PWR017" H 7200 2750 50  0001 C CNN
F 1 "GND" H 7200 2850 50  0000 C CNN
F 2 "" H 7200 3000 50  0001 C CNN
F 3 "" H 7200 3000 50  0001 C CNN
	1    7200 3000
	1    0    0    -1  
$EndComp
$Comp
L GND #PWR018
U 1 1 5A3EE82E
P 5600 3200
F 0 "#PWR018" H 5600 2950 50  0001 C CNN
F 1 "GND" H 5600 3050 50  0000 C CNN
F 2 "" H 5600 3200 50  0001 C CNN
F 3 "" H 5600 3200 50  0001 C CNN
	1    5600 3200
	-1   0    0    1   
$EndComp
$Comp
L +12P #PWR019
U 1 1 5A3EE95E
P 6750 1300
F 0 "#PWR019" H 6750 1150 50  0001 C CNN
F 1 "+12P" H 6750 1440 50  0000 C CNN
F 2 "" H 6750 1300 50  0001 C CNN
F 3 "" H 6750 1300 50  0001 C CNN
	1    6750 1300
	0    1    1    0   
$EndComp
$Comp
L Q_NMOS_GDS Q4
U 1 1 5A3EEC33
P 1900 6550
F 0 "Q4" H 2100 6600 50  0000 L CNN
F 1 "IRFZ44N" H 2100 6500 50  0000 L CNN
F 2 "TO_SOT_Packages_THT:TO-220-3_Vertical" H 2100 6650 50  0001 C CNN
F 3 "" H 1900 6550 50  0001 C CNN
	1    1900 6550
	1    0    0    -1  
$EndComp
$Comp
L GND #PWR020
U 1 1 5A3EECCF
P 2000 6850
F 0 "#PWR020" H 2000 6600 50  0001 C CNN
F 1 "GND" H 2000 6700 50  0000 C CNN
F 2 "" H 2000 6850 50  0001 C CNN
F 3 "" H 2000 6850 50  0001 C CNN
	1    2000 6850
	1    0    0    -1  
$EndComp
$Comp
L Conn_01x02 J4
U 1 1 5A3EEDC6
P 2400 6150
F 0 "J4" H 2400 6250 50  0000 C CNN
F 1 "OUT" H 2400 5950 50  0000 C CNN
F 2 "Connectors_Terminal_Blocks:TerminalBlock_bornier-2_P5.08mm" H 2400 6150 50  0001 C CNN
F 3 "" H 2400 6150 50  0001 C CNN
	1    2400 6150
	1    0    0    1   
$EndComp
$Comp
L D D4
U 1 1 5A3EEFE8
P 2000 6100
F 0 "D4" H 2000 6200 50  0000 C CNN
F 1 "1N4001" H 2000 6000 50  0000 C CNN
F 2 "Diodes_THT:D_DO-15_P5.08mm_Vertical_AnodeUp" H 2000 6100 50  0001 C CNN
F 3 "" H 2000 6100 50  0001 C CNN
	1    2000 6100
	0    1    1    0   
$EndComp
$Comp
L +12P #PWR021
U 1 1 5A3EF17F
P 2000 5850
F 0 "#PWR021" H 2000 5700 50  0001 C CNN
F 1 "+12P" H 2000 5990 50  0000 C CNN
F 2 "" H 2000 5850 50  0001 C CNN
F 3 "" H 2000 5850 50  0001 C CNN
	1    2000 5850
	1    0    0    -1  
$EndComp
$Comp
L R R8
U 1 1 5A3EF29C
P 1500 6550
F 0 "R8" V 1580 6550 50  0000 C CNN
F 1 "1k" V 1500 6550 50  0000 C CNN
F 2 "Resistors_THT:R_Axial_DIN0309_L9.0mm_D3.2mm_P12.70mm_Horizontal" V 1430 6550 50  0001 C CNN
F 3 "" H 1500 6550 50  0001 C CNN
	1    1500 6550
	0    1    1    0   
$EndComp
$Comp
L R R4
U 1 1 5A3EF557
P 1300 7100
F 0 "R4" V 1380 7100 50  0000 C CNN
F 1 "10k" V 1300 7100 50  0000 C CNN
F 2 "Resistors_THT:R_Axial_DIN0309_L9.0mm_D3.2mm_P12.70mm_Horizontal" V 1230 7100 50  0001 C CNN
F 3 "" H 1300 7100 50  0001 C CNN
	1    1300 7100
	-1   0    0    1   
$EndComp
Text GLabel 5600 3700 0    60   Input ~ 0
Output1
Text GLabel 1200 6550 0    60   Input ~ 0
Output1
$Comp
L Q_NMOS_GDS Q3
U 1 1 5A3F05A2
P 1900 5100
F 0 "Q3" H 2100 5150 50  0000 L CNN
F 1 "IRFZ44N" H 2100 5050 50  0000 L CNN
F 2 "TO_SOT_Packages_THT:TO-220-3_Vertical" H 2100 5200 50  0001 C CNN
F 3 "" H 1900 5100 50  0001 C CNN
	1    1900 5100
	1    0    0    -1  
$EndComp
$Comp
L GND #PWR022
U 1 1 5A3F05A8
P 2000 5400
F 0 "#PWR022" H 2000 5150 50  0001 C CNN
F 1 "GND" H 2000 5250 50  0000 C CNN
F 2 "" H 2000 5400 50  0001 C CNN
F 3 "" H 2000 5400 50  0001 C CNN
	1    2000 5400
	1    0    0    -1  
$EndComp
$Comp
L Conn_01x02 J3
U 1 1 5A3F05AF
P 2400 4700
F 0 "J3" H 2400 4800 50  0000 C CNN
F 1 "OUT" H 2400 4500 50  0000 C CNN
F 2 "Connectors_Terminal_Blocks:TerminalBlock_bornier-2_P5.08mm" H 2400 4700 50  0001 C CNN
F 3 "" H 2400 4700 50  0001 C CNN
	1    2400 4700
	1    0    0    1   
$EndComp
$Comp
L D D3
U 1 1 5A3F05B5
P 2000 4650
F 0 "D3" H 2000 4750 50  0000 C CNN
F 1 "1N4001" H 2000 4550 50  0000 C CNN
F 2 "Diodes_THT:D_DO-15_P5.08mm_Vertical_AnodeUp" H 2000 4650 50  0001 C CNN
F 3 "" H 2000 4650 50  0001 C CNN
	1    2000 4650
	0    1    1    0   
$EndComp
$Comp
L +12P #PWR023
U 1 1 5A3F05C2
P 2000 4400
F 0 "#PWR023" H 2000 4250 50  0001 C CNN
F 1 "+12P" H 2000 4540 50  0000 C CNN
F 2 "" H 2000 4400 50  0001 C CNN
F 3 "" H 2000 4400 50  0001 C CNN
	1    2000 4400
	1    0    0    -1  
$EndComp
$Comp
L R R7
U 1 1 5A3F05C9
P 1500 5100
F 0 "R7" V 1580 5100 50  0000 C CNN
F 1 "1k" V 1500 5100 50  0000 C CNN
F 2 "Resistors_THT:R_Axial_DIN0309_L9.0mm_D3.2mm_P12.70mm_Horizontal" V 1430 5100 50  0001 C CNN
F 3 "" H 1500 5100 50  0001 C CNN
	1    1500 5100
	0    1    1    0   
$EndComp
$Comp
L R R3
U 1 1 5A3F05CF
P 1300 5650
F 0 "R3" V 1380 5650 50  0000 C CNN
F 1 "10k" V 1300 5650 50  0000 C CNN
F 2 "Resistors_THT:R_Axial_DIN0309_L9.0mm_D3.2mm_P12.70mm_Horizontal" V 1230 5650 50  0001 C CNN
F 3 "" H 1300 5650 50  0001 C CNN
	1    1300 5650
	-1   0    0    1   
$EndComp
$Comp
L GND #PWR024
U 1 1 5A3F05D5
P 1300 4400
F 0 "#PWR024" H 1300 4150 50  0001 C CNN
F 1 "GND" H 1300 4250 50  0000 C CNN
F 2 "" H 1300 4400 50  0001 C CNN
F 3 "" H 1300 4400 50  0001 C CNN
	1    1300 4400
	1    0    0    -1  
$EndComp
Text GLabel 1200 5100 0    60   Input ~ 0
Output2
Text GLabel 5600 3400 0    60   Input ~ 0
Output2
Text GLabel 5600 3600 0    60   Input ~ 0
Output3
$Comp
L Q_NMOS_GDS Q2
U 1 1 5A3F1229
P 1900 3650
F 0 "Q2" H 2100 3700 50  0000 L CNN
F 1 "IRFZ44N" H 2100 3600 50  0000 L CNN
F 2 "TO_SOT_Packages_THT:TO-220-3_Vertical" H 2100 3750 50  0001 C CNN
F 3 "" H 1900 3650 50  0001 C CNN
	1    1900 3650
	1    0    0    -1  
$EndComp
$Comp
L GND #PWR025
U 1 1 5A3F122F
P 2000 3950
F 0 "#PWR025" H 2000 3700 50  0001 C CNN
F 1 "GND" H 2000 3800 50  0000 C CNN
F 2 "" H 2000 3950 50  0001 C CNN
F 3 "" H 2000 3950 50  0001 C CNN
	1    2000 3950
	1    0    0    -1  
$EndComp
$Comp
L Conn_01x02 J2
U 1 1 5A3F1236
P 2400 3250
F 0 "J2" H 2400 3350 50  0000 C CNN
F 1 "OUT" H 2400 3050 50  0000 C CNN
F 2 "Connectors_Terminal_Blocks:TerminalBlock_bornier-2_P5.08mm" H 2400 3250 50  0001 C CNN
F 3 "" H 2400 3250 50  0001 C CNN
	1    2400 3250
	1    0    0    1   
$EndComp
$Comp
L D D2
U 1 1 5A3F123C
P 2000 3200
F 0 "D2" H 2000 3300 50  0000 C CNN
F 1 "1N4001" H 2000 3100 50  0000 C CNN
F 2 "Diodes_THT:D_DO-15_P5.08mm_Vertical_AnodeUp" H 2000 3200 50  0001 C CNN
F 3 "" H 2000 3200 50  0001 C CNN
	1    2000 3200
	0    1    1    0   
$EndComp
$Comp
L +12P #PWR026
U 1 1 5A3F1249
P 2000 2950
F 0 "#PWR026" H 2000 2800 50  0001 C CNN
F 1 "+12P" H 2000 3090 50  0000 C CNN
F 2 "" H 2000 2950 50  0001 C CNN
F 3 "" H 2000 2950 50  0001 C CNN
	1    2000 2950
	1    0    0    -1  
$EndComp
$Comp
L R R6
U 1 1 5A3F1250
P 1500 3650
F 0 "R6" V 1580 3650 50  0000 C CNN
F 1 "1k" V 1500 3650 50  0000 C CNN
F 2 "Resistors_THT:R_Axial_DIN0309_L9.0mm_D3.2mm_P12.70mm_Horizontal" V 1430 3650 50  0001 C CNN
F 3 "" H 1500 3650 50  0001 C CNN
	1    1500 3650
	0    1    1    0   
$EndComp
$Comp
L R R2
U 1 1 5A3F1256
P 1300 4200
F 0 "R2" V 1380 4200 50  0000 C CNN
F 1 "10k" V 1300 4200 50  0000 C CNN
F 2 "Resistors_THT:R_Axial_DIN0309_L9.0mm_D3.2mm_P12.70mm_Horizontal" V 1230 4200 50  0001 C CNN
F 3 "" H 1300 4200 50  0001 C CNN
	1    1300 4200
	-1   0    0    1   
$EndComp
Text GLabel 1200 3650 0    60   Input ~ 0
Output3
NoConn ~ 6750 4200
NoConn ~ 5750 3500
NoConn ~ 5750 3300
NoConn ~ 5750 3100
NoConn ~ 5750 3000
NoConn ~ 5750 2900
$Comp
L PWR_FLAG #FLG027
U 1 1 5A3F3425
P 6300 1100
F 0 "#FLG027" H 6300 1175 50  0001 C CNN
F 1 "PWR_FLAG" H 6300 1250 50  0000 C CNN
F 2 "" H 6300 1100 50  0001 C CNN
F 3 "" H 6300 1100 50  0001 C CNN
	1    6300 1100
	1    0    0    -1  
$EndComp
$Comp
L PWR_FLAG #FLG028
U 1 1 5A3F38A8
P 6050 1100
F 0 "#FLG028" H 6050 1175 50  0001 C CNN
F 1 "PWR_FLAG" H 6050 1250 50  0000 C CNN
F 2 "" H 6050 1100 50  0001 C CNN
F 3 "" H 6050 1100 50  0001 C CNN
	1    6050 1100
	1    0    0    -1  
$EndComp
Wire Wire Line
	6850 4000 6750 4000
Wire Wire Line
	6750 3400 6850 3400
Wire Wire Line
	6850 3600 6750 3600
Wire Wire Line
	6750 3800 6850 3800
Wire Wire Line
	6850 3200 6750 3200
Wire Wire Line
	10400 4800 10400 4850
Wire Wire Line
	10000 4800 10000 4850
Wire Wire Line
	10000 5150 10000 5200
Wire Wire Line
	9900 5200 10050 5200
Wire Wire Line
	10350 5200 10550 5200
Wire Wire Line
	10400 5200 10400 5150
Connection ~ 10000 5200
Wire Wire Line
	10000 5350 10000 5300
Wire Wire Line
	10000 5300 9900 5300
Connection ~ 10400 5200
Wire Wire Line
	10400 5750 10400 5800
Wire Wire Line
	10000 5750 10000 5800
Wire Wire Line
	10000 6100 10000 6150
Wire Wire Line
	9900 6150 10050 6150
Wire Wire Line
	10350 6150 10550 6150
Wire Wire Line
	10400 6150 10400 6100
Connection ~ 10000 6150
Wire Wire Line
	10000 6300 10000 6250
Wire Wire Line
	10000 6250 9900 6250
Connection ~ 10400 6150
Wire Wire Line
	10400 3850 10400 3900
Wire Wire Line
	10000 3850 10000 3900
Wire Wire Line
	10000 4200 10000 4250
Wire Wire Line
	9900 4250 10050 4250
Wire Wire Line
	10350 4250 10550 4250
Wire Wire Line
	10400 4250 10400 4200
Connection ~ 10000 4250
Wire Wire Line
	10000 4400 10000 4350
Wire Wire Line
	10000 4350 9900 4350
Connection ~ 10400 4250
Wire Wire Line
	10400 2900 10400 2950
Wire Wire Line
	10000 2900 10000 2950
Wire Wire Line
	10000 3250 10000 3300
Wire Wire Line
	9900 3300 10050 3300
Wire Wire Line
	10350 3300 10550 3300
Wire Wire Line
	10400 3300 10400 3250
Connection ~ 10000 3300
Wire Wire Line
	10000 3450 10000 3400
Wire Wire Line
	10000 3400 9900 3400
Connection ~ 10400 3300
Wire Wire Line
	6050 1100 6050 1450
Wire Wire Line
	6050 1400 6000 1400
Wire Wire Line
	6000 1300 6350 1300
Wire Wire Line
	6300 1550 6350 1550
Connection ~ 6300 1300
Wire Wire Line
	6650 1550 6750 1550
Wire Wire Line
	7200 3000 6750 3000
Wire Wire Line
	6750 2900 7200 2900
Wire Wire Line
	5600 3200 5750 3200
Wire Wire Line
	6650 1300 6750 1300
Wire Wire Line
	2000 6850 2000 6750
Wire Wire Line
	2200 6150 2200 6300
Wire Wire Line
	2200 6300 2000 6300
Wire Wire Line
	2000 6250 2000 6350
Connection ~ 2000 6300
Wire Wire Line
	2200 6050 2200 5900
Wire Wire Line
	2200 5900 2000 5900
Wire Wire Line
	2000 5850 2000 5950
Connection ~ 2000 5900
Wire Wire Line
	1300 6600 1300 6550
Wire Wire Line
	1200 6550 1350 6550
Wire Wire Line
	1650 6550 1700 6550
Connection ~ 1300 6550
Wire Wire Line
	2000 5400 2000 5300
Wire Wire Line
	2200 4700 2200 4850
Wire Wire Line
	2200 4850 2000 4850
Wire Wire Line
	2000 4800 2000 4900
Connection ~ 2000 4850
Wire Wire Line
	2200 4600 2200 4450
Wire Wire Line
	2200 4450 2000 4450
Wire Wire Line
	2000 4400 2000 4500
Connection ~ 2000 4450
Wire Wire Line
	1300 5500 1300 5450
Wire Wire Line
	1300 5150 1300 5100
Wire Wire Line
	1200 5100 1350 5100
Wire Wire Line
	1650 5100 1700 5100
Connection ~ 1300 5100
Wire Wire Line
	2000 3950 2000 3850
Wire Wire Line
	2200 3250 2200 3400
Wire Wire Line
	2200 3400 2000 3400
Wire Wire Line
	2000 3350 2000 3450
Connection ~ 2000 3400
Wire Wire Line
	2200 3150 2200 3000
Wire Wire Line
	2200 3000 2000 3000
Wire Wire Line
	2000 2950 2000 3050
Connection ~ 2000 3000
Wire Wire Line
	1300 4050 1300 4000
Wire Wire Line
	1300 3700 1300 3650
Wire Wire Line
	1200 3650 1350 3650
Wire Wire Line
	1650 3650 1700 3650
Connection ~ 1300 3650
Wire Wire Line
	5750 3400 5600 3400
Wire Wire Line
	5750 3600 5600 3600
Wire Wire Line
	5750 3700 5600 3700
Connection ~ 6050 1400
Wire Wire Line
	6300 1100 6300 1550
NoConn ~ 6750 3100
Wire Wire Line
	6700 1250 6700 1300
Connection ~ 6700 1300
Wire Wire Line
	6700 1600 6700 1550
Connection ~ 6700 1550
$Comp
L PWR_FLAG #FLG029
U 1 1 5A3F526F
P 6700 1250
F 0 "#FLG029" H 6700 1325 50  0001 C CNN
F 1 "PWR_FLAG" H 6700 1400 50  0000 C CNN
F 2 "" H 6700 1250 50  0001 C CNN
F 3 "" H 6700 1250 50  0001 C CNN
	1    6700 1250
	1    0    0    -1  
$EndComp
$Comp
L PWR_FLAG #FLG030
U 1 1 5A3F52F2
P 6700 1600
F 0 "#FLG030" H 6700 1675 50  0001 C CNN
F 1 "PWR_FLAG" H 6700 1750 50  0000 C CNN
F 2 "" H 6700 1600 50  0001 C CNN
F 3 "" H 6700 1600 50  0001 C CNN
	1    6700 1600
	-1   0    0    1   
$EndComp
NoConn ~ 4050 2450
$Comp
L R R24
U 1 1 5A4140A2
P 5500 4300
F 0 "R24" V 5580 4300 50  0000 C CNN
F 1 "1k" V 5500 4300 50  0000 C CNN
F 2 "Resistors_THT:R_Axial_DIN0309_L9.0mm_D3.2mm_P12.70mm_Horizontal" V 5430 4300 50  0001 C CNN
F 3 "" H 5500 4300 50  0001 C CNN
	1    5500 4300
	0    1    1    0   
$EndComp
$Comp
L R R23
U 1 1 5A414257
P 5500 4200
F 0 "R23" V 5580 4200 50  0000 C CNN
F 1 "1k" V 5500 4200 50  0000 C CNN
F 2 "Resistors_THT:R_Axial_DIN0309_L9.0mm_D3.2mm_P12.70mm_Horizontal" V 5430 4200 50  0001 C CNN
F 3 "" H 5500 4200 50  0001 C CNN
	1    5500 4200
	0    1    1    0   
$EndComp
$Comp
L R R22
U 1 1 5A4142D6
P 5500 4100
F 0 "R22" V 5580 4100 50  0000 C CNN
F 1 "1k" V 5500 4100 50  0000 C CNN
F 2 "Resistors_THT:R_Axial_DIN0309_L9.0mm_D3.2mm_P12.70mm_Horizontal" V 5430 4100 50  0001 C CNN
F 3 "" H 5500 4100 50  0001 C CNN
	1    5500 4100
	0    1    1    0   
$EndComp
$Comp
L R R25
U 1 1 5A414358
P 5500 4400
F 0 "R25" V 5580 4400 50  0000 C CNN
F 1 "1k" V 5500 4400 50  0000 C CNN
F 2 "Resistors_THT:R_Axial_DIN0309_L9.0mm_D3.2mm_P25.40mm_Horizontal" V 5430 4400 50  0001 C CNN
F 3 "" H 5500 4400 50  0001 C CNN
	1    5500 4400
	0    1    1    0   
$EndComp
$Comp
L ArduinoNano U1
U 1 1 5A3EC4BE
P 6250 4050
F 0 "U1" V 6300 4400 60  0000 C CNN
F 1 "ArduinoNano" V 6200 4400 60  0000 C CNN
F 2 "ArduinoNano:ArduinoNano" H 6250 4050 60  0001 C CNN
F 3 "" H 6250 4050 60  0001 C CNN
	1    6250 4050
	1    0    0    -1  
$EndComp
Wire Wire Line
	5650 4100 5750 4100
Wire Wire Line
	5750 4200 5650 4200
Wire Wire Line
	5650 4300 5750 4300
Wire Wire Line
	5650 4400 5700 4400
Wire Wire Line
	5700 4400 5700 4450
Wire Wire Line
	5700 4450 6800 4450
Wire Wire Line
	6800 4450 6800 4300
Wire Wire Line
	6800 4300 6750 4300
$Comp
L R R1
U 1 1 5A4147AD
P 5000 4600
F 0 "R1" V 5080 4600 50  0000 C CNN
F 1 "1k" V 5000 4600 50  0000 C CNN
F 2 "Resistors_THT:R_Axial_DIN0309_L9.0mm_D3.2mm_P12.70mm_Horizontal" V 4930 4600 50  0001 C CNN
F 3 "" H 5000 4600 50  0001 C CNN
	1    5000 4600
	-1   0    0    1   
$EndComp
$Comp
L R R19
U 1 1 5A414843
P 5100 4600
F 0 "R19" V 5180 4600 50  0000 C CNN
F 1 "1k" V 5100 4600 50  0000 C CNN
F 2 "Resistors_THT:R_Axial_DIN0309_L9.0mm_D3.2mm_P12.70mm_Horizontal" V 5030 4600 50  0001 C CNN
F 3 "" H 5100 4600 50  0001 C CNN
	1    5100 4600
	-1   0    0    1   
$EndComp
$Comp
L R R20
U 1 1 5A4148E0
P 5200 4600
F 0 "R20" V 5280 4600 50  0000 C CNN
F 1 "1k" V 5200 4600 50  0000 C CNN
F 2 "Resistors_THT:R_Axial_DIN0309_L9.0mm_D3.2mm_P12.70mm_Horizontal" V 5130 4600 50  0001 C CNN
F 3 "" H 5200 4600 50  0001 C CNN
	1    5200 4600
	-1   0    0    1   
$EndComp
$Comp
L R R21
U 1 1 5A41497C
P 5300 4600
F 0 "R21" V 5380 4600 50  0000 C CNN
F 1 "1k" V 5300 4600 50  0000 C CNN
F 2 "Resistors_THT:R_Axial_DIN0309_L9.0mm_D3.2mm_P12.70mm_Horizontal" V 5230 4600 50  0001 C CNN
F 3 "" H 5300 4600 50  0001 C CNN
	1    5300 4600
	-1   0    0    1   
$EndComp
Wire Wire Line
	4400 4100 5350 4100
Wire Wire Line
	5000 4100 5000 4450
Wire Wire Line
	4400 4200 5350 4200
Wire Wire Line
	5100 4200 5100 4450
Wire Wire Line
	5200 4450 5200 4300
Wire Wire Line
	4400 4300 5350 4300
Wire Wire Line
	4400 4400 5350 4400
Wire Wire Line
	5300 4400 5300 4450
$Comp
L GND #PWR031
U 1 1 5A414F43
P 5150 4900
F 0 "#PWR031" H 5150 4650 50  0001 C CNN
F 1 "GND" H 5150 4750 50  0000 C CNN
F 2 "" H 5150 4900 50  0001 C CNN
F 3 "" H 5150 4900 50  0001 C CNN
	1    5150 4900
	1    0    0    -1  
$EndComp
Wire Wire Line
	5150 4900 5150 4800
Wire Wire Line
	5000 4800 5300 4800
Wire Wire Line
	5000 4800 5000 4750
Wire Wire Line
	5100 4750 5100 4800
Connection ~ 5100 4800
Wire Wire Line
	5300 4800 5300 4750
Wire Wire Line
	5200 4750 5200 4800
Connection ~ 5150 4800
Connection ~ 5200 4800
Connection ~ 5000 4100
Connection ~ 5100 4200
Connection ~ 5200 4300
Connection ~ 5300 4400
$Comp
L R R5
U 1 1 5A417A28
P 5100 3800
F 0 "R5" V 5180 3800 50  0000 C CNN
F 1 "1k" V 5100 3800 50  0000 C CNN
F 2 "Resistors_THT:R_Axial_DIN0309_L9.0mm_D3.2mm_P12.70mm_Horizontal" V 5030 3800 50  0001 C CNN
F 3 "" H 5100 3800 50  0001 C CNN
	1    5100 3800
	0    1    1    0   
$EndComp
$Comp
L R R17
U 1 1 5A417B27
P 5100 3900
F 0 "R17" V 5180 3900 50  0000 C CNN
F 1 "1k" V 5100 3900 50  0000 C CNN
F 2 "Resistors_THT:R_Axial_DIN0309_L9.0mm_D3.2mm_P12.70mm_Horizontal" V 5030 3900 50  0001 C CNN
F 3 "" H 5100 3900 50  0001 C CNN
	1    5100 3900
	0    1    1    0   
$EndComp
$Comp
L R R18
U 1 1 5A417BC1
P 5100 4000
F 0 "R18" V 5180 4000 50  0000 C CNN
F 1 "1k" V 5100 4000 50  0000 C CNN
F 2 "Resistors_THT:R_Axial_DIN0309_L9.0mm_D3.2mm_P12.70mm_Horizontal" V 5030 4000 50  0001 C CNN
F 3 "" H 5100 4000 50  0001 C CNN
	1    5100 4000
	0    1    1    0   
$EndComp
$Comp
L Conn_01x09 J1
U 1 1 5A417C60
P 4200 4200
F 0 "J1" H 4200 4700 50  0000 C CNN
F 1 "Conn_01x09" H 4200 3700 50  0000 C CNN
F 2 "Pin_Headers:Pin_Header_Straight_1x09_Pitch2.54mm" H 4200 4200 50  0001 C CNN
F 3 "" H 4200 4200 50  0001 C CNN
	1    4200 4200
	-1   0    0    1   
$EndComp
Wire Wire Line
	4950 4000 4400 4000
Wire Wire Line
	4400 3900 4950 3900
Wire Wire Line
	4950 3800 4400 3800
Wire Wire Line
	5750 4000 5250 4000
Wire Wire Line
	5250 3900 5750 3900
Wire Wire Line
	5750 3800 5250 3800
$Comp
L GND #PWR032
U 1 1 5A43C9BB
P 4750 4550
F 0 "#PWR032" H 4750 4300 50  0001 C CNN
F 1 "GND" H 4750 4400 50  0000 C CNN
F 2 "" H 4750 4550 50  0001 C CNN
F 3 "" H 4750 4550 50  0001 C CNN
	1    4750 4550
	1    0    0    -1  
$EndComp
Wire Wire Line
	4750 4550 4750 4500
Wire Wire Line
	4750 4500 4400 4500
$Comp
L LED D1
U 1 1 5A43D26E
P 1300 3850
F 0 "D1" H 1300 3950 50  0000 C CNN
F 1 "LED" H 1300 3750 50  0000 C CNN
F 2 "LEDs:LED_D3.0mm" H 1300 3850 50  0001 C CNN
F 3 "" H 1300 3850 50  0001 C CNN
	1    1300 3850
	0    -1   -1   0   
$EndComp
Wire Wire Line
	1300 4400 1300 4350
$Comp
L GND #PWR033
U 1 1 5A43D795
P 1300 7300
F 0 "#PWR033" H 1300 7050 50  0001 C CNN
F 1 "GND" H 1300 7150 50  0000 C CNN
F 2 "" H 1300 7300 50  0001 C CNN
F 3 "" H 1300 7300 50  0001 C CNN
	1    1300 7300
	1    0    0    -1  
$EndComp
Wire Wire Line
	1300 6950 1300 6900
$Comp
L LED D5
U 1 1 5A43D79C
P 1300 6750
F 0 "D5" H 1300 6850 50  0000 C CNN
F 1 "LED" H 1300 6650 50  0000 C CNN
F 2 "LEDs:LED_D3.0mm" H 1300 6750 50  0001 C CNN
F 3 "" H 1300 6750 50  0001 C CNN
	1    1300 6750
	0    -1   -1   0   
$EndComp
Wire Wire Line
	1300 7300 1300 7250
$Comp
L GND #PWR034
U 1 1 5A43E071
P 1300 5850
F 0 "#PWR034" H 1300 5600 50  0001 C CNN
F 1 "GND" H 1300 5700 50  0000 C CNN
F 2 "" H 1300 5850 50  0001 C CNN
F 3 "" H 1300 5850 50  0001 C CNN
	1    1300 5850
	1    0    0    -1  
$EndComp
$Comp
L LED D6
U 1 1 5A43E077
P 1300 5300
F 0 "D6" H 1300 5400 50  0000 C CNN
F 1 "LED" H 1300 5200 50  0000 C CNN
F 2 "LEDs:LED_D3.0mm" H 1300 5300 50  0001 C CNN
F 3 "" H 1300 5300 50  0001 C CNN
	1    1300 5300
	0    -1   -1   0   
$EndComp
Wire Wire Line
	1300 5850 1300 5800
$EndSCHEMATC
